{
	"category": "Prototype",
	"clean": "hungry-people-website",
	"creator": {
		"name": "Lawrence",
		"title": "Tsang"
	},
	"content": ["A well written description of any project makes it possible for the indented audience (e.g. the sponsor, the executive) to understand the concept and context of the proposed project and to realize whether to approve and finance the project or not.", "Writing a project description document is a general task of the project manager or his/her deputy who is supposed to identify the idea, goals, background, approach, outcomes and other data in a correct and comprehensive manner. The document should define the project as a worthwhile and economically effective and reasonable endeavor to convince the sponsor of the need to make the necessary investments. In this publication I’m going to talk about."],
	"description": "A well written description of any project makes it possible for the indented audience (e.g. the sponsor, the executive) to understand the concept and context of the proposed project and to realize whether to approve and finance the project or not.",
	"images": [{
		"base64": "",
		"file_type": ""
	}],
	"medium": "Design",
	"quote": "I Love What I Do More Than Anything On Earth!",
	"testimonial": {
		"name": "John Spiteri",
		"headshot": {
			"base64": "",
			"file_type": ""
		},
		"statement": "I had so much fun working, drinking, and smoking together! Really amazing and professional attitude"
	},
	"thumb": {
		"base64": "",
		"file_type": ""
	},
	"title": "Hungry People Website"
}
